Chapter reference;Chapter name;Location X;Location Y;Reachable marker image;Unreachable marker image;Discovered?;Adjacent chapters;Scene reference;Scene title;Scene text;Scene image;Initial scene?;Initial scene preconditions;Option reference;Option text;Option preconditions;Option effects;Option next scene;Scene node location X;Scene node location Y;Option node location X;Option node location Y
A;Chapter 789;0.5;0.5;;;0;;A2;;Scene 234;;0;;A2.3;Option 403;;;;398;439;559;187;
;;;;;;;;A1;;Scene 83;;1;;A1.2;Option 128;;;A2;33;469;181;295;
;;;;;;;;;;;;;;A1.1;Option 338;;;A2;;;201;560;
